vhdl xbip_utils_v3_0_5 "../../../ipstatic/xbip_utils_v3_0_5/hdl/xbip_utils_v3_0_vh_rfs.vhd" 
vhdl axi_utils_v2_0_1 "../../../ipstatic/axi_utils_v2_0_1/hdl/axi_utils_v2_0_vh_rfs.vhd" 
vhdl c_reg_fd_v12_0_1 "../../../ipstatic/c_reg_fd_v12_0_1/hdl/c_reg_fd_v12_0_vh_rfs.vhd" 
vhdl c_reg_fd_v12_0_1 "../../../ipstatic/c_reg_fd_v12_0_1/hdl/c_reg_fd_v12_0.vhd" 
vhdl xbip_dsp48_wrapper_v3_0_4 "../../../ipstatic/xbip_dsp48_wrapper_v3_0_4/hdl/xbip_dsp48_wrapper_v3_0_vh_rfs.vhd" 
vhdl xbip_pipe_v3_0_1 "../../../ipstatic/xbip_pipe_v3_0_1/hdl/xbip_pipe_v3_0_vh_rfs.vhd" 
vhdl xbip_pipe_v3_0_1 "../../../ipstatic/xbip_pipe_v3_0_1/hdl/xbip_pipe_v3_0.vhd" 
vhdl xbip_dsp48_addsub_v3_0_1 "../../../ipstatic/xbip_dsp48_addsub_v3_0_1/hdl/xbip_dsp48_addsub_v3_0_vh_rfs.vhd" 
vhdl xbip_dsp48_addsub_v3_0_1 "../../../ipstatic/xbip_dsp48_addsub_v3_0_1/hdl/xbip_dsp48_addsub_v3_0.vhd" 
vhdl xbip_addsub_v3_0_1 "../../../ipstatic/xbip_addsub_v3_0_1/hdl/xbip_addsub_v3_0_vh_rfs.vhd" 
vhdl xbip_addsub_v3_0_1 "../../../ipstatic/xbip_addsub_v3_0_1/hdl/xbip_addsub_v3_0.vhd" 
vhdl c_addsub_v12_0_8 "../../../ipstatic/c_addsub_v12_0_8/hdl/c_addsub_v12_0_vh_rfs.vhd" 
vhdl c_addsub_v12_0_8 "../../../ipstatic/c_addsub_v12_0_8/hdl/c_addsub_v12_0.vhd" 
vhdl c_mux_bit_v12_0_1 "../../../ipstatic/c_mux_bit_v12_0_1/hdl/c_mux_bit_v12_0_vh_rfs.vhd" 
vhdl c_mux_bit_v12_0_1 "../../../ipstatic/c_mux_bit_v12_0_1/hdl/c_mux_bit_v12_0.vhd" 
vhdl c_shift_ram_v12_0_8 "../../../ipstatic/c_shift_ram_v12_0_8/hdl/c_shift_ram_v12_0_vh_rfs.vhd" 
vhdl c_shift_ram_v12_0_8 "../../../ipstatic/c_shift_ram_v12_0_8/hdl/c_shift_ram_v12_0.vhd" 
vhdl xbip_bram18k_v3_0_1 "../../../ipstatic/xbip_bram18k_v3_0_1/hdl/xbip_bram18k_v3_0_vh_rfs.vhd" 
vhdl xbip_bram18k_v3_0_1 "../../../ipstatic/xbip_bram18k_v3_0_1/hdl/xbip_bram18k_v3_0.vhd" 
vhdl mult_gen_v12_0_10 "../../../ipstatic/mult_gen_v12_0_10/hdl/mult_gen_v12_0_vh_rfs.vhd" 
vhdl mult_gen_v12_0_10 "../../../ipstatic/mult_gen_v12_0_10/hdl/mult_gen_v12_0.vhd" 
vhdl cmpy_v6_0_10 "../../../ipstatic/cmpy_v6_0_10/hdl/cmpy_v6_0_vh_rfs.vhd" 
vhdl cmpy_v6_0_10 "../../../ipstatic/cmpy_v6_0_10/hdl/cmpy_v6_0.vhd" 
vhdl floating_point_v7_0_11 "../../../ipstatic/floating_point_v7_0_11/hdl/floating_point_v7_0_vh_rfs.vhd" 
vhdl xfft_v9_0_9 "../../../ipstatic/xfft_v9_0_9/hdl/xfft_v9_0_vh_rfs.vhd" 
vhdl xfft_v9_0_9 "../../../ipstatic/xfft_v9_0_9/hdl/xfft_v9_0.vhd" 
vhdl xil_defaultlib "../../../../Design Automation Project1 FFT Module.srcs/sources_1/ip/xfft_0/sim/xfft_0.vhd" 

nosort
