Language File-Name                           IP      Library                    File-Path                                                                         
VHDL,    xbip_utils_v3_0_vh_rfs.vhd,         xfft_0, xbip_utils_v3_0_5,         ../../../ipstatic/xbip_utils_v3_0_5/hdl/xbip_utils_v3_0_vh_rfs.vhd                
VHDL,    axi_utils_v2_0_vh_rfs.vhd,          xfft_0, axi_utils_v2_0_1,          ../../../ipstatic/axi_utils_v2_0_1/hdl/axi_utils_v2_0_vh_rfs.vhd                  
VHDL,    c_reg_fd_v12_0_vh_rfs.vhd,          xfft_0, c_reg_fd_v12_0_1,          ../../../ipstatic/c_reg_fd_v12_0_1/hdl/c_reg_fd_v12_0_vh_rfs.vhd                  
VHDL,    c_reg_fd_v12_0.vhd,                 xfft_0, c_reg_fd_v12_0_1,          ../../../ipstatic/c_reg_fd_v12_0_1/hdl/c_reg_fd_v12_0.vhd                         
VHDL,    xbip_dsp48_wrapper_v3_0_vh_rfs.vhd, xfft_0, xbip_dsp48_wrapper_v3_0_4, ../../../ipstatic/xbip_dsp48_wrapper_v3_0_4/hdl/xbip_dsp48_wrapper_v3_0_vh_rfs.vhd
VHDL,    xbip_pipe_v3_0_vh_rfs.vhd,          xfft_0, xbip_pipe_v3_0_1,          ../../../ipstatic/xbip_pipe_v3_0_1/hdl/xbip_pipe_v3_0_vh_rfs.vhd                  
VHDL,    xbip_pipe_v3_0.vhd,                 xfft_0, xbip_pipe_v3_0_1,          ../../../ipstatic/xbip_pipe_v3_0_1/hdl/xbip_pipe_v3_0.vhd                         
VHDL,    xbip_dsp48_addsub_v3_0_vh_rfs.vhd,  xfft_0, xbip_dsp48_addsub_v3_0_1,  ../../../ipstatic/xbip_dsp48_addsub_v3_0_1/hdl/xbip_dsp48_addsub_v3_0_vh_rfs.vhd  
VHDL,    xbip_dsp48_addsub_v3_0.vhd,         xfft_0, xbip_dsp48_addsub_v3_0_1,  ../../../ipstatic/xbip_dsp48_addsub_v3_0_1/hdl/xbip_dsp48_addsub_v3_0.vhd         
VHDL,    xbip_addsub_v3_0_vh_rfs.vhd,        xfft_0, xbip_addsub_v3_0_1,        ../../../ipstatic/xbip_addsub_v3_0_1/hdl/xbip_addsub_v3_0_vh_rfs.vhd              
VHDL,    xbip_addsub_v3_0.vhd,               xfft_0, xbip_addsub_v3_0_1,        ../../../ipstatic/xbip_addsub_v3_0_1/hdl/xbip_addsub_v3_0.vhd                     
VHDL,    c_addsub_v12_0_vh_rfs.vhd,          xfft_0, c_addsub_v12_0_8,          ../../../ipstatic/c_addsub_v12_0_8/hdl/c_addsub_v12_0_vh_rfs.vhd                  
VHDL,    c_addsub_v12_0.vhd,                 xfft_0, c_addsub_v12_0_8,          ../../../ipstatic/c_addsub_v12_0_8/hdl/c_addsub_v12_0.vhd                         
VHDL,    c_mux_bit_v12_0_vh_rfs.vhd,         xfft_0, c_mux_bit_v12_0_1,         ../../../ipstatic/c_mux_bit_v12_0_1/hdl/c_mux_bit_v12_0_vh_rfs.vhd                
VHDL,    c_mux_bit_v12_0.vhd,                xfft_0, c_mux_bit_v12_0_1,         ../../../ipstatic/c_mux_bit_v12_0_1/hdl/c_mux_bit_v12_0.vhd                       
VHDL,    c_shift_ram_v12_0_vh_rfs.vhd,       xfft_0, c_shift_ram_v12_0_8,       ../../../ipstatic/c_shift_ram_v12_0_8/hdl/c_shift_ram_v12_0_vh_rfs.vhd            
VHDL,    c_shift_ram_v12_0.vhd,              xfft_0, c_shift_ram_v12_0_8,       ../../../ipstatic/c_shift_ram_v12_0_8/hdl/c_shift_ram_v12_0.vhd                   
VHDL,    xbip_bram18k_v3_0_vh_rfs.vhd,       xfft_0, xbip_bram18k_v3_0_1,       ../../../ipstatic/xbip_bram18k_v3_0_1/hdl/xbip_bram18k_v3_0_vh_rfs.vhd            
VHDL,    xbip_bram18k_v3_0.vhd,              xfft_0, xbip_bram18k_v3_0_1,       ../../../ipstatic/xbip_bram18k_v3_0_1/hdl/xbip_bram18k_v3_0.vhd                   
VHDL,    mult_gen_v12_0_vh_rfs.vhd,          xfft_0, mult_gen_v12_0_10,         ../../../ipstatic/mult_gen_v12_0_10/hdl/mult_gen_v12_0_vh_rfs.vhd                 
VHDL,    mult_gen_v12_0.vhd,                 xfft_0, mult_gen_v12_0_10,         ../../../ipstatic/mult_gen_v12_0_10/hdl/mult_gen_v12_0.vhd                        
VHDL,    cmpy_v6_0_vh_rfs.vhd,               xfft_0, cmpy_v6_0_10,              ../../../ipstatic/cmpy_v6_0_10/hdl/cmpy_v6_0_vh_rfs.vhd                           
VHDL,    cmpy_v6_0.vhd,                      xfft_0, cmpy_v6_0_10,              ../../../ipstatic/cmpy_v6_0_10/hdl/cmpy_v6_0.vhd                                  
VHDL,    floating_point_v7_0_vh_rfs.vhd,     xfft_0, floating_point_v7_0_11,    ../../../ipstatic/floating_point_v7_0_11/hdl/floating_point_v7_0_vh_rfs.vhd       
VHDL,    xfft_v9_0_vh_rfs.vhd,               xfft_0, xfft_v9_0_9,               ../../../ipstatic/xfft_v9_0_9/hdl/xfft_v9_0_vh_rfs.vhd                            
VHDL,    xfft_v9_0.vhd,                      xfft_0, xfft_v9_0_9,               ../../../ipstatic/xfft_v9_0_9/hdl/xfft_v9_0.vhd                                   
VHDL,    xfft_0.vhd,                         xfft_0, xil_defaultlib,            ../../../../Design                                                                
